…
``` r
matching_methane = 13 # the ppm after trial and error 
modtran_match_ch4 = run_modtran(file.path(data_dir, "ex_4_1_ch4_match.txt"),
                                co2_ppm = 400, ch4_ppm = matching_methane)

print(modtran_match_ch4) #priting data to see teh results 
```

    ## $spectrum
    ## # A tibble: 1,100 × 12
    ##        k lambda        pk       pl       sk       sl   srk   srl      tk      tl
    ##    <dbl>  <dbl>     <dbl>    <dbl>    <dbl>    <dbl> <dbl> <dbl>   <dbl>   <dbl>
    ##  1     2  5000.  9.70e-10 3.88e-13 2.20e-10 8.81e-14     0     0 3.74e-5 1.49e-8
    ##  2     4  2500   3.47e- 9 5.56e-12 4.92e-10 7.87e-13     0     0 1.25e-4 1.99e-7
    ##  3     6  1667.  8.13e- 9 2.93e-11 3.55e-10 1.28e-12     0     0 2.66e-4 9.58e-7
    ##  4     8  1250   1.45e- 8 9.31e-11 2.07e-10 1.32e-12     0     0 4.62e-4 2.96e-6
    ##  5    10  1000   2.22e- 8 2.22e-10 6.68e-11 6.68e-13     0     0 6.97e-4 6.97e-6
    ##  6    12   833.  3.05e- 8 4.39e-10 8.25e-13 1.19e-14     0     0 9.58e-4 1.38e-5
    ##  7    14   714.  4   e- 8 7.83e-10 1.10e-16 2.17e-18     0     0 1.26e-3 2.46e-5
    ##  8    16   625   5.08e- 8 1.3 e- 9 6.33e-21 1.62e-22     0     0 1.60e-3 4.08e-5
    ##  9    18   556.  6.13e- 8 1.98e- 9 2.23e-19 7.23e-21     0     0 1.92e-3 6.22e-5
    ## 10    20   500   7.64e- 8 3.05e- 9 2.23e-19 8.92e-21     0     0 2.40e-3 9.58e-5
    ## # ℹ 1,090 more rows
    ## # ℹ 2 more variables: int <dbl>, trans <dbl>
    ## 
    ## $co2
    ## co2mx 
    ##   400 
    ## 
    ## $ch4
    ## ch4rat 
    ##     13 
    ## 
    ## $i_out
    ## [1] 295.3411
    ## 
    ## $alt
    ## [1] 70
    ## 
    ## $sensor_direction
    ## [1] down
    ## Levels: up down
    ## 
    ## $profile
    ## # A tibble: 33 × 7
    ##        Z     P     T    H2O     O3   CO2   CH4
    ##    <dbl> <dbl> <dbl>  <dbl>  <dbl> <dbl> <dbl>
    ##  1     0  1013  300. 18756. 0.0287   400  13  
    ##  2     1   904  294. 14381. 0.0315   400  13  
    ##  3     2   805  288. 11540. 0.0334   400  13  
    ##  4     3   715  284.  6559. 0.035    400  13  
    ##  5     4   633  277   3476. 0.0356   400  13  
    ##  6     5   559  270.  2683. 0.0377   400  13  
    ##  7     6   492  264.  1726. 0.0399   400  13  
    ##  8     7   432  257   1086. 0.0422   400  13  
    ##  9     8   378  250.   661. 0.0447   400  13  
    ## 10     9   329  244.   365. 0.05     400  12.9
    ## # ℹ 23 more rows
    ## 
    ## $h_tropo
    ## [1] 17
    ## 
    ## $t_tropo
    ## [1] 194.8
    ## 
    ## $t_ground
…
